sensor_1,1619597323517,24.0
sensor_2,1619597387518,15.4
sensor_3,1619597392519,23.7
sensor_2,1619597387543,14.4
sensor_3,1619597392537,6.7
sensor_2,1619597387527,24.4
sensor_3,1619597392557,56.7
sensor_2,1619597387567,55.4
sensor_3,1619597392577,56.7
sensor_4,1619597396526,38.7
sensor_3,1619597392512,66.1
sensor_4,1619597396511,38.2
sensor_2,1619597396513,4.2
sensor_4,1619597396514,28.7
sensor_4,1619597396510,34.7